<svg width="40" height="40" viewBox="0 0 40 40" fill="none" xmlns="http://www.w3.org/2000/svg">
    <path fill-rule="evenodd" clip-rule="evenodd" d="M19.9986 40C8.95399 40 0 31.046 0 20C0 8.95399 8.95399 0 19.9986 0C31.0446 0 39.9986 8.95399 39.9986 20C39.9986 31.046 31.0446 40 19.9986 40Z" fill="url(#paint0_linear)"></path>
    <defs>
        <linearGradient id="paint0_linear" x1="19.9993" y1="0" x2="19.9993" y2="40" gradientUnits="userSpaceOnUse">
            <stop stop-color="#626A87"></stop>
            <stop offset="1" stop-color="#2A3766"></stop>
        </linearGradient>
    </defs>
    <svg x="6" y="9">
        <path d="M21.551 6.42004C21.3878 6.42004 21.3061 6.42004 21.2245 6.42004C21.1429 6.50235 21.0612 6.58466 20.9796 6.66697C20.9796 6.74928 20.9796 6.74928 20.9796 6.83159C20.9796 6.91389 20.9796 6.9962 20.9796 6.9962C20.9796 7.07851 21.0612 7.07851 21.0612 7.16082C21.1429 7.24313 21.1429 7.24313 21.2245 7.24313L26.2041 9.38314L23.4286 10.8647L20.6531 12.3462C19.9184 11.1939 18.7755 10.3708 17.4694 9.9593H17.3878V3.37464C17.3878 1.56386 15.9184 0 14.0408 0C12.1633 0 10.6939 1.48155 10.6939 3.37464V10.0416C10.6122 10.0416 10.5306 10.0416 10.449 10.1239C9.14286 10.4531 8 11.3585 7.26531 12.5109L1.71429 9.54776L6.69388 7.40774C6.77551 7.40774 6.77551 7.32543 6.85714 7.32543C6.93878 7.24313 6.93878 7.24313 6.93878 7.16082C6.93878 7.07851 6.93878 6.9962 6.93878 6.9962C6.93878 6.91389 6.93878 6.83159 6.93878 6.83159C6.93878 6.58466 6.85714 6.50235 6.69388 6.42004C6.61225 6.33774 6.44898 6.33774 6.36735 6.42004L0.0816327 9.13622H0L1.38776 15.8855C1.38776 16.0501 1.46939 16.1324 1.55102 16.2147C1.63265 16.297 1.79592 16.297 1.87755 16.297C1.95918 16.297 2.04082 16.297 2.04082 16.2147C2.12245 16.2147 2.12245 16.1324 2.20408 16.0501C2.20408 15.9678 2.28571 15.9678 2.28571 15.8855C2.28571 15.8032 2.28571 15.7209 2.28571 15.7209L1.22449 10.3708L6.85714 13.3339C6.44898 14.3216 6.36735 15.3093 6.53061 16.3793C6.69388 17.4494 7.18367 18.437 7.91837 19.1778C8.65306 19.9186 9.55102 20.4948 10.5306 20.824C11.0204 20.9886 11.5102 20.9886 11.9184 20.9886C12.4898 20.9886 13.0612 20.9063 13.551 20.7417C13.6327 20.7417 13.7959 20.6594 13.8776 20.6594H13.9592H14.0408C14.1224 20.7417 14.2041 20.7417 14.3673 20.7417C15.3469 21.0709 16.4082 21.0709 17.4694 20.824C18.449 20.5771 19.4286 20.0009 20.0816 19.1778C20.7347 18.3547 21.2245 17.4494 21.4694 16.3793C21.6327 15.3916 21.551 14.3216 21.1429 13.3339L26.7755 10.3708L25.7143 15.7209C25.7143 15.8032 25.7143 15.8855 25.7143 15.8855C25.7143 15.9678 25.7143 16.0501 25.7959 16.0501C25.7959 16.1324 25.8776 16.1324 25.9592 16.2147C26.0408 16.2147 26.0408 16.297 26.1224 16.297C26.2041 16.297 26.3673 16.297 26.449 16.2147C26.5306 16.1324 26.6122 16.0501 26.6122 15.8855L28 9.21852V9.13622L21.551 6.42004ZM14.0408 0.987699C15.3469 0.987699 16.4082 2.05771 16.4082 3.37464V9.9593C15.5918 9.87699 14.7755 10.0416 14.0408 10.3708C13.3878 10.1239 12.7347 9.9593 12 9.9593C11.9184 9.9593 11.8367 9.9593 11.7551 9.9593V3.37464C11.6735 2.05771 12.7347 0.987699 14.0408 0.987699ZM11.1837 12.7578C10.6939 13.7455 10.449 14.8155 10.5306 15.8855C10.6122 16.9555 11.0204 18.0255 11.6735 18.8486C12 19.2601 12.3265 19.5894 12.7347 19.8363C12.2449 19.9186 11.8367 20.0009 11.4286 19.9186C10.8571 19.8363 10.2857 19.6717 9.71429 19.4247C9.14286 19.1778 8.73469 18.7663 8.32653 18.3547C7.91837 17.8609 7.67347 17.367 7.5102 16.7909C7.34694 16.2147 7.26531 15.6386 7.34694 15.0624C7.42857 14.4863 7.59184 13.9101 7.83674 13.3339C8.08163 12.8401 8.4898 12.3462 8.89796 11.9347C9.38776 11.5232 9.87755 11.2762 10.449 11.1116C10.8571 10.947 11.3469 10.8647 11.8367 10.8647C12 10.8647 12.0816 10.8647 12.2449 10.8647C12.4082 10.8647 12.5714 10.947 12.7347 10.947C12.0816 11.4408 11.5918 12.0993 11.1837 12.7578ZM11.6735 14.0747C11.8367 13.4986 12.1633 13.0047 12.4898 12.5109C12.898 12.017 13.3061 11.6878 13.8776 11.4408C14.3673 11.6878 14.8571 12.0993 15.2653 12.5109C15.6735 13.0047 15.9184 13.4986 16.0816 14.0747C16.2449 14.6509 16.3265 15.227 16.2449 15.8032C16.1633 16.3793 16 16.9555 15.7551 17.5317C15.5102 18.1078 15.102 18.5194 14.6939 18.9309C14.449 19.0955 14.2041 19.3424 13.8776 19.5071C13.551 19.3424 13.2245 19.1778 13.0612 18.9309C12.5714 18.5194 12.2449 18.1078 12 17.5317C11.7551 17.0378 11.5918 16.4617 11.5102 15.8032C11.4286 15.227 11.5102 14.6509 11.6735 14.0747ZM16.1633 18.8486C16.8163 18.0255 17.2245 16.9555 17.3061 15.8855C17.3878 14.8155 17.1429 13.7455 16.6531 12.7578C16.2449 12.0993 15.7551 11.4408 15.102 10.947C15.2653 10.947 15.4286 10.8647 15.5918 10.8647C16.1633 10.7824 16.7347 10.8647 17.3061 11.0293C17.8776 11.1939 18.3673 11.5232 18.8571 11.8524C19.3469 12.2639 19.6735 12.6755 19.9184 13.2516C20.1633 13.7455 20.3265 14.3216 20.4082 14.9801C20.4898 15.5563 20.4082 16.2147 20.2449 16.7086C20.0816 17.2847 19.7551 17.7786 19.4286 18.2724C19.0204 18.7663 18.6122 19.0955 18.0408 19.3424C17.4694 19.5894 16.898 19.8363 16.3265 19.8363C15.9184 19.8363 15.5102 19.8363 15.0204 19.754C15.5102 19.5894 15.9184 19.2601 16.1633 18.8486Z" fill="white"></path>
    </svg>
</svg>