<svg width="54" height="12" viewBox="0 0 54 12" fill="none" xmlns="http://www.w3.org/2000/svg">
    <path fill-rule="evenodd" clip-rule="evenodd" d="M4.1341 9.81C4.54574 9.81 4.93082 9.73714 5.29377 9.59571C5.29377 9.60857 6.03295 10.7186 6.04623 10.7229C5.392 11.0622 4.65933 11.2348 3.91721 11.2243C1.64656 11.2286 0 9.77571 0 7.46571C0 5.13857 1.72623 3.69429 3.91721 3.69429C4.6918 3.69429 5.30705 3.85714 5.9223 4.17429L5.2141 5.33143C4.8423 5.19 4.46164 5.12571 4.06328 5.12571C2.72213 5.12571 1.68197 5.95286 1.68197 7.46571C1.68197 8.89714 2.68672 9.81 4.1341 9.81ZM9.85721 3.69429C12.088 3.69429 13.7036 5.22429 13.7036 7.46571C13.7036 9.69429 12.088 11.2243 9.85279 11.2243C7.63967 11.2243 6.0241 9.69429 6.0241 7.46571C6.0241 5.22429 7.63967 3.69429 9.85721 3.69429ZM9.85721 5.07429C8.61344 5.07429 7.70607 6.00429 7.70607 7.46571C7.70607 8.91429 8.61344 9.84429 9.85721 9.84429C11.132 9.84429 12.0261 8.91429 12.0261 7.46571C12.0261 6.00429 11.132 5.07429 9.85721 5.07429ZM14.7615 11.0614V3.85714H16.4257V11.0571H14.7615V11.0614ZM14.5402 1.64143C14.5574 1.38512 14.6748 1.14476 14.8683 0.969146C15.0619 0.793528 15.3173 0.695804 15.5825 0.695804C15.8478 0.695804 16.1032 0.793528 16.2967 0.969146C16.4903 1.14476 16.6077 1.38512 16.6249 1.64143C16.625 1.91055 16.5161 2.16898 16.3216 2.36127C16.1272 2.55356 15.8626 2.66439 15.5848 2.67C15.3069 2.66439 15.0423 2.55356 14.8479 2.36127C14.6534 2.16898 14.5445 1.91055 14.5446 1.64143H14.5402ZM17.8775 4.31143C18.9677 3.91468 20.1212 3.70581 21.2857 3.69429C23.189 3.69429 24.393 4.39286 24.393 6.42429V11.0614H22.7508V6.57429C22.7508 5.53286 22.0825 5.16 21.1574 5.16C20.5687 5.16 19.98 5.23714 19.5418 5.37V11.0571H17.882V4.31143H17.8775ZM25.7872 0H27.4515V4.05C27.8056 3.87 28.4916 3.69429 29.1467 3.69429C31.2979 3.69429 32.909 5.02286 32.909 7.33714C32.909 9.66429 31.3156 11.2243 28.5625 11.2243C27.4869 11.2243 26.5441 11.01 25.7872 10.7529V0ZM27.4515 9.69429C27.7702 9.79286 28.1907 9.84429 28.6111 9.84429C30.1382 9.84429 31.2315 9.03 31.2315 7.37143C31.2315 5.97 30.2046 5.14286 28.9475 5.14286C28.2925 5.14286 27.7879 5.30571 27.4515 5.48571V9.69429ZM37.7203 6.23143C37.7203 5.45143 37.1095 5.09143 36.2862 5.09143C35.432 5.09143 34.7592 5.33571 34.1395 5.67857V4.27714C34.8808 3.88707 35.7126 3.68647 36.5562 3.69429C38.1851 3.69429 39.3448 4.34571 39.3448 6.15V10.9157C38.6366 11.0957 37.6318 11.2071 36.7908 11.2071C34.861 11.2071 33.449 10.6414 33.449 9.01286C33.449 7.54714 34.7415 6.83143 36.8926 6.83143H37.7159V6.23143H37.7203ZM37.7203 7.90286H37.0121C35.8525 7.90286 35.0956 8.23286 35.0956 8.96571C35.0956 9.71143 35.8038 10.0029 36.8085 10.0029C37.0608 10.0029 37.4149 9.97286 37.7159 9.92571V7.90714L37.7203 7.90286ZM40.5531 9.11143C41.2017 9.60902 41.9969 9.89417 42.8238 9.92571C43.563 9.92571 44.0498 9.68143 44.0498 9.11143C44.0498 8.52429 43.6116 8.31429 42.6556 8.07C41.1064 7.72714 40.4557 7.12714 40.4557 5.87143C40.4557 4.41 41.5977 3.69429 43.1115 3.69429C43.9525 3.69429 44.6208 3.87 45.2449 4.24714V5.72571C44.6517 5.26733 43.919 5.01123 43.1602 4.99714C42.4387 4.99714 42.0536 5.34 42.0536 5.81143C42.0536 6.28286 42.3679 6.52286 43.2266 6.75429C44.9262 7.11 45.661 7.72714 45.661 9.02571C45.661 10.5429 44.4703 11.2243 42.8592 11.2243C42.0511 11.2399 41.2543 11.0381 40.5575 10.6414V9.11143H40.5531ZM47.9405 7.82571V7.85571C48.0423 9.14143 49.1798 9.84429 50.3439 9.84429C51.3664 9.84429 52.1056 9.61286 52.8448 9.14143V10.5557C52.172 11.0143 51.1805 11.2243 50.2244 11.2243C47.9051 11.2243 46.3293 9.79286 46.3293 7.51714C46.3293 5.22429 47.8741 3.69429 49.9234 3.69429C52.0923 3.69429 53.1148 5.04429 53.1148 7.01143V7.82571H47.9361H47.9405ZM51.5523 6.78429C51.5169 5.66143 50.9459 5.04429 49.8703 5.04429C48.9143 5.04429 48.2105 5.69571 47.9892 6.78429H51.5523Z" fill="#0168BB"/>
</svg>
