<svg width="30" height="29" viewBox="0 0 30 29" fill="none" xmlns="http://www.w3.org/2000/svg">
    <path fill-rule="evenodd" clip-rule="evenodd" d="M0.75111 28.1585H0.657221C0.657221 28.1108 0.633322 28.0408 0.633322 28.0169C0.633322 27.993 0.633322 27.9469 0.563332 27.9469H0.421646V28.1585H0.351656V27.6635H0.563332C0.657221 27.6635 0.728918 27.6874 0.728918 27.7813C0.728918 27.8513 0.705019 27.8752 0.68112 27.8991C0.705019 27.923 0.728918 27.9469 0.728918 27.993V28.0869C0.728918 28.1108 0.728918 28.1108 0.752817 28.1108V28.1585H0.75111ZM0.657221 27.8052C0.657221 27.7352 0.609423 27.7352 0.587231 27.7352H0.421646V27.8769H0.563332C0.61113 27.8752 0.657221 27.8513 0.657221 27.8052ZM1.05838 27.8991C1.05838 27.6157 0.822807 27.3801 0.517242 27.3801C0.233868 27.3801 0 27.6157 0 27.8991C0 28.2046 0.235575 28.4402 0.517242 28.4402C0.822807 28.4402 1.05838 28.2046 1.05838 27.8991ZM0.986685 27.8991C0.986685 28.1585 0.775009 28.3463 0.515534 28.3463C0.25606 28.3463 0.0682827 28.1585 0.0682827 27.8991C0.0682827 27.6635 0.25606 27.4518 0.515534 27.4518C0.775009 27.4518 0.986685 27.6635 0.986685 27.8991Z" fill="#0078A9"/>
    <path fill-rule="evenodd" clip-rule="evenodd" d="M30 18.3856C30 19.0923 29.5527 19.4218 28.7521 19.4218H27.2209V18.7151H28.7521C28.8938 18.7151 29.0116 18.6912 29.0577 18.6451C29.1055 18.5973 29.1516 18.5273 29.1516 18.4334C29.1516 18.3395 29.1038 18.2456 29.0577 18.1978C29.0099 18.15 28.916 18.1278 28.7743 18.1278C28.0437 18.1039 27.1253 18.1517 27.1253 17.1156C27.1253 16.6444 27.4309 16.1272 28.2554 16.1272H29.8327V16.8339H28.3732C28.2315 16.8339 28.1376 16.8339 28.0676 16.8817C27.9976 16.9517 27.9498 17.0234 27.9498 17.1412C27.9498 17.2589 28.0198 17.3289 28.1154 17.3767C28.2093 17.4006 28.3032 17.4245 28.4209 17.4245H28.8443C29.2916 17.4245 29.5749 17.5184 29.7627 17.684C29.9061 17.8445 30 18.0562 30 18.3856ZM26.6797 17.6789C26.492 17.5133 26.2086 17.4194 25.7613 17.4194H25.338C25.2202 17.4194 25.1263 17.3955 25.0324 17.3716C24.9385 17.3238 24.8668 17.2538 24.8668 17.136C24.8668 17.0183 24.8907 16.9483 24.9846 16.8766C25.0546 16.8288 25.1502 16.8288 25.2902 16.8288H26.7497V16.122H25.1724C24.324 16.122 24.0423 16.6393 24.0423 17.1104C24.0423 18.1466 24.9607 18.0988 25.6913 18.1227C25.833 18.1227 25.9269 18.1466 25.9747 18.1927C26.0225 18.2405 26.0686 18.3344 26.0686 18.4283C26.0686 18.5222 26.0208 18.5939 25.9747 18.64C25.9047 18.6878 25.8091 18.71 25.6692 18.71H24.1379V19.4167H25.6692C26.4698 19.4167 26.917 19.0872 26.917 18.3805C26.9153 18.0561 26.8197 17.8445 26.6797 17.6789ZM23.6651 18.739H21.8044V18.08H23.6173V17.4211H21.8044V16.8083H23.6651V16.1255H21.0276V19.4218H23.6651V18.739ZM20.1792 16.2893C19.9198 16.1476 19.6142 16.1237 19.213 16.1237H17.4001V19.4201H18.2007V18.2183H19.0491C19.3325 18.2183 19.4964 18.2422 19.6142 18.36C19.7559 18.5256 19.7559 18.8073 19.7559 19.0189V19.4201H20.5326V18.7851C20.5326 18.4795 20.5087 18.3378 20.4148 18.1722C20.3448 18.0783 20.2031 17.9606 20.0136 17.8889C20.2253 17.8189 20.5787 17.5355 20.5787 17.0183C20.5804 16.6427 20.4387 16.431 20.1792 16.2893ZM15.705 16.1255H13.1854L12.1731 17.2094L11.2069 16.1255H8.02832V19.4218H11.1608L12.1731 18.3378L13.1393 19.4218H14.6705V18.3156H15.6589C16.3417 18.3156 17.0246 18.1278 17.0246 17.2094C17.0246 16.3132 16.3178 16.1255 15.705 16.1255ZM19.5442 17.4911C19.4264 17.5389 19.3086 17.5389 19.1669 17.5389L18.2007 17.5628V16.81H19.1669C19.3086 16.81 19.4503 16.81 19.5442 16.88C19.6381 16.9278 19.7098 17.0217 19.7098 17.1634C19.7081 17.3016 19.6381 17.4194 19.5442 17.4911ZM15.705 17.655H14.6688V16.8066H15.705C15.9884 16.8066 16.1762 16.9244 16.1762 17.2077C16.1762 17.4911 15.9884 17.655 15.705 17.655ZM12.6681 17.7728L13.8921 16.4771V19.1384L12.6681 17.7728ZM10.7596 18.739H8.80503V18.08H10.5479V17.4211H8.80503V16.8083H10.7835L11.6541 17.7745L10.7596 18.739ZM27.8098 13.7458H26.6797L25.1963 11.274V13.7458H23.5951L23.2895 13.0152H21.6405L21.3349 13.7458H20.4165C20.0392 13.7458 19.5459 13.6519 19.2625 13.3685C19.0031 13.0852 18.8614 12.7096 18.8614 12.1207C18.8614 11.6256 18.9314 11.1784 19.2847 10.825C19.5203 10.5655 19.9437 10.4477 20.4865 10.4477H21.2393V11.1545H20.4865C20.2031 11.1545 20.0392 11.2023 19.8737 11.3423C19.732 11.4839 19.662 11.7434 19.662 12.0951C19.662 12.4467 19.732 12.7079 19.8737 12.8718C19.9914 12.9896 20.2031 13.0374 20.4148 13.0374H20.7682L21.8982 10.4477H23.0761L24.3957 13.5563V10.4495H25.6196L27.0092 12.7335V10.4495H27.8098V13.7458ZM18.4602 10.4495H17.6596V13.7458H18.4602V10.4495ZM16.789 10.5911C16.5295 10.4495 16.2478 10.4495 15.8467 10.4495H14.0338V13.7458H14.8105V12.544H15.6589C15.9423 12.544 16.1301 12.5679 16.2478 12.6857C16.3895 12.8513 16.3656 13.133 16.3656 13.3207V13.7441H17.1663V13.0852C17.1663 12.8018 17.1424 12.6618 17.0246 12.4962C16.9546 12.4023 16.8129 12.2846 16.6473 12.2129C16.859 12.119 17.2123 11.8595 17.2123 11.3423C17.2123 10.9667 17.0485 10.755 16.789 10.5911ZM13.4687 13.063H11.6319V12.404H13.4448V11.7212H11.6319V11.1323H13.4687V10.4495H10.8313V13.7458H13.4687V13.063ZM10.2424 10.4495H8.94672L7.98052 12.6874L6.94603 10.4495H5.67427V13.558L4.33251 10.4495H3.15464L1.74118 13.7458H2.5896L2.89516 13.0152H4.54419L4.84976 13.7458H6.45098V11.1562L7.60496 13.7458H8.28779L9.44177 11.1562V13.7458H10.2424V10.4495ZM23.0061 12.3102L22.465 11.0145L21.9239 12.3102H23.0061ZM16.1762 11.7912C16.0584 11.8612 15.9406 11.8612 15.775 11.8612H14.8088V11.1306H15.775C15.9167 11.1306 16.0806 11.1306 16.1762 11.1784C16.27 11.2484 16.3178 11.344 16.3178 11.4839C16.3178 11.6273 16.27 11.7451 16.1762 11.7912ZM3.17683 12.3102L3.71797 11.0145L4.25911 12.3102H3.17683ZM29.8105 0.11145H1.71729V11.9807L2.68349 9.79053H4.73197L5.01534 10.3317V9.79053H7.41719L7.95833 10.9684L8.47557 9.79053H16.1301C16.4834 9.79053 16.789 9.86052 17.0246 10.05V9.79053H19.1208V10.05C19.4742 9.86222 19.9215 9.79053 20.4404 9.79053H23.479L23.7624 10.3317V9.79053H26.0003L26.3298 10.3317V9.79053H28.52V14.4064H26.3059L25.8825 13.6997V14.4064H23.1273L22.8218 13.6536H22.1389L21.8334 14.4064H20.3977C19.8327 14.4064 19.4093 14.2648 19.126 14.1231V14.4064H15.7118V13.3463C15.7118 13.2047 15.6879 13.1808 15.594 13.1808H15.4763V14.4047H8.87673V13.8158L8.64115 14.4047H7.2516L7.01602 13.8397V14.4047H4.35471L4.07133 13.6519H3.3885L3.08294 14.4047H1.71729V28.3225H29.8105V19.8691C29.5049 20.0107 29.0799 20.0807 28.6565 20.0807H26.608V19.7974C26.3725 19.9851 25.9491 20.0807 25.548 20.0807H19.0952V19.0206C19.0952 18.879 19.0713 18.879 18.9536 18.879H18.8358V20.0807H16.7173V18.8329C16.3639 18.9985 15.9645 18.9985 15.6111 18.9985H15.3755V20.0824H12.7859L12.1731 19.3757L11.4902 20.0824H7.32159V15.4648H11.5602L12.1731 16.1715L12.832 15.4648H15.6811C16.0106 15.4648 16.5517 15.5126 16.7873 15.7482V15.4648H19.3308C19.5903 15.4648 20.0836 15.5126 20.4148 15.7482V15.4648H24.254V15.7482C24.4657 15.5604 24.8668 15.4648 25.2202 15.4648H27.3626V15.7482C27.5981 15.5826 27.9276 15.4648 28.351 15.4648H29.8105V0.11145Z" fill="#0078A9"/>
</svg>
