<svg width="22" height="26" viewBox="0 0 22 26" fill="none" xmlns="http://www.w3.org/2000/svg">
    <path d="M20.6 3.09999C17.4 2.89999 14.1 1.89999 10.9 -1.22041e-05C10.7 -0.100012 10.5 -0.100012 10.3 -1.22041e-05C7 1.89999 3.7 2.89999 0.5 3.09999C0.2 3.19999 0 3.39999 0 3.69999V14.5C0 16.3 0.6 18 1.7 19.6C2.5 20.8 3.7 22 5.2 23C7.7 24.7 10.2 25.6 10.3 25.6C10.4 25.6 10.4 25.6 10.5 25.6C10.6 25.6 10.6 25.6 10.7 25.6C10.8 25.6 13.3 24.8 15.8 23C17.3 22 18.5 20.8 19.4 19.6C20.5 18 21.1 16.3 21.1 14.5V3.69999C21.1 3.39999 20.9 3.19999 20.6 3.09999ZM20 14.5C20 17.3 18.4 19.9 15.3 22C13.3 23.4 11.2 24.2 10.6 24.4C10 24.2 8 23.4 5.9 22C2.8 19.8 1.2 17.3 1.2 14.4V4.19999C4.3 3.89999 7.5 2.89999 10.6 1.19999C13.7 2.89999 16.9 3.89999 20 4.19999V14.5Z"
          fill="currentColor"/>
    <path d="M12.7 14.9C12.6 14.4 12.5 13.9 12.5 13.4C13.5 12.8 14 11.7 14 10.6C14 8.69998 12.5 7.19998 10.6 7.19998C8.69995 7.19998 7.19995 8.69998 7.19995 10.6C7.19995 11.8 7.79995 12.8 8.69995 13.4C8.59995 13.9 8.49995 14.4 8.49995 14.9C8.29995 15.9 8.19995 16.9 8.09995 17.9C8.09995 18.1 8.09995 18.2 8.19995 18.3C8.29995 18.4 8.49995 18.5 8.59995 18.5H12.6C12.8 18.5 12.9 18.4 13 18.3C13.1 18.2 13.2 18 13.1 17.9C13 17 12.8 15.9 12.7 14.9ZM11.3 13.3C11.4 13.9 11.5 14.6 11.6 15.2C11.7 16 11.9 16.8 12 17.5H9.19995C9.29995 16.7 9.39995 15.9 9.59995 15.2C9.69995 14.6 9.79995 13.9 9.89995 13.3C9.89995 13.1 9.79995 12.8 9.59995 12.7C8.79995 12.3 8.29995 11.5 8.29995 10.7C8.29995 9.39998 9.29995 8.39998 10.6 8.39998C11.9 8.39998 12.9 9.39998 12.9 10.7C12.9 11.6 12.4 12.4 11.6 12.7C11.3 12.8 11.2 13 11.3 13.3Z"
          fill="currentColor"/>
</svg>
