<svg width="19" height="10" viewBox="0 0 19 10" fill="none" xmlns="http://www.w3.org/2000/svg">
<path d="M9.66697 2.0183L17.3257 9.05238C17.6307 9.33257 18.1052 9.3124 18.3854 9.00733C18.6656 8.70226 18.6454 8.22781 18.3403 7.94762L10.1743 0.447623C9.88745 0.184137 9.44661 0.184124 9.15971 0.447592L0.992712 7.94759C0.687626 8.22776 0.667425 8.70221 0.947596 9.00729C1.22777 9.31238 1.70221 9.33258 2.0073 9.05241L9.66697 2.0183Z" fill="#46525B"/>
</svg>
