<svg width="56" height="60" viewBox="0 0 56 60" fill="none" xmlns="http://www.w3.org/2000/svg">
    <path d="M31.2902 25.3859L24.8359 25.7444L24.4773 19.4695C24.3877 18.5731 23.6706 17.8559 22.7741 17.9456C21.8777 18.0352 21.1606 18.7523 21.2502 19.6488L21.6088 25.9237L15.1545 26.2823C14.2581 26.3719 13.541 27.0891 13.6306 27.9855C13.7203 28.8819 14.4374 29.5991 15.3338 29.5094L21.7881 29.1509L22.1466 35.874C22.2363 36.7705 22.9534 37.4876 23.8499 37.3979C24.7463 37.3083 25.4634 36.5912 25.3738 35.6947L25.0152 28.9716L31.4694 28.613C32.3659 28.5234 33.083 27.8062 32.9934 26.9098C32.9037 26.0134 32.1866 25.3859 31.2902 25.3859Z" fill="#3B5999" fill-opacity="0.43"/>
    <path d="M34.6958 23.5032C36.9732 23.5032 38.8194 21.657 38.8194 19.3796C38.8194 17.1023 36.9732 15.2561 34.6958 15.2561C32.4184 15.2561 30.5723 17.1023 30.5723 19.3796C30.5723 21.657 32.4184 23.5032 34.6958 23.5032Z" fill="#3B5999" fill-opacity="0.43"/>
    <path d="M52.7147 4.05098L14.3478 0.0170802C12.6446 -0.162204 11.2103 1.09279 11.031 2.70635L10.4932 7.99524L13.541 7.81596L14.0789 2.97528L52.3561 7.00918L48.7704 41.6111L47.4258 41.4318L47.9636 53.6232C49.3979 53.5335 50.6529 52.4578 50.7425 50.9339L55.3143 7.36775C55.5832 5.66454 54.3282 4.23027 52.7147 4.05098Z" fill="#3B5999" fill-opacity="0.43"/>
    <path d="M41.4193 8.08472L2.87307 9.87756C1.16987 9.9672 -0.0851264 11.4015 0.00451588 13.015L1.97665 56.7605C2.06629 58.4637 3.50057 59.7187 5.11413 59.629L43.5707 57.8362C45.2739 57.7465 46.5289 56.3123 46.4392 54.6987L44.4671 10.9533C44.4671 9.33971 43.0328 8.08472 41.4193 8.08472ZM4.57627 47.617L3.05235 12.9254L41.5089 11.1326L43.1225 45.8241L4.57627 47.617Z" fill="#3B5999" fill-opacity="0.43"/>
    <path d="M41.1507 35.5155C41.061 34.4398 40.7024 33.4537 39.9853 32.6469L37.296 29.6887C36.3996 28.7923 34.8757 28.882 33.9793 29.868L29.0489 35.5155L27.0768 33.0952L27.2561 35.6948C27.3457 37.5773 25.9115 39.1908 24.029 39.2805C23.9393 39.2805 23.9393 39.2805 23.8497 39.2805C22.0568 39.2805 20.5329 37.8462 20.4433 36.0534L20.1744 31.123L15.3337 31.392C13.4512 31.4816 11.8376 30.0473 11.748 28.1648C11.748 27.627 11.8376 26.9995 12.1065 26.5513H11.748L6.54873 33.3641C5.92123 34.1709 5.56266 35.2466 5.6523 36.3223L6.10051 46.0036L41.5989 44.3901L41.1507 35.5155Z" fill="#3B5999" fill-opacity="0.43"/>
</svg>
